…
## Analyzing Contacts by Their Current Company

    company_contact_counts <- linkedin_data %>%
      group_by(Company) %>%
      summarise(Count = n()) %>%
      arrange(desc(Count))

    print(company_contact_counts)

    ## # A tibble: 245 × 2
    ##    Company                                             Count
    ##    <chr>                                               <int>
    ##  1 McGill University - Desautels Faculty of Management    22
    ##  2 McGill University                                      14
    ##  3 TD                                                     10
    ##  4 Pratt & Whitney Canada                                  7
    ##  5 <NA>                                                    7
    ##  6 CAE                                                     6
    ##  7 Desautels Capital Management                            6
    ##  8 Sunnybrook                                              6
    ##  9 CN                                                      5
    ## 10 L'Oréal                                                 5
    ## # ℹ 235 more rows
…
### Identifying Connections Between Individuals Within the Same Company

    connections_details <- nodes_unique %>%
      group_by(Company) %>%
      filter(n() > 1) %>%
      summarise(CombinationPairs = list(combn(NodeID, 2, simplify = FALSE))) %>%
      unnest(CombinationPairs) %>%
      ungroup() %>%
      mutate(From = sapply(CombinationPairs, `[`, 1),
             To = sapply(CombinationPairs, `[`, 2)) %>%
      select(From, To)

    print(connections_details)

    ## # A tibble: 563 × 2
    ##     From    To
    ##    <int> <int>
    ##  1    54    58
    ##  2    54   297
    ##  3    58   297
    ##  4   183   189
    ##  5   255   318
    ##  6   255   328
    ##  7   318   328
    ##  8    52    64
    ##  9   167   228
    ## 10   167   317
    ## # ℹ 553 more rows
…
